<?xml version="1.0" encoding="utf-8"?>
<!-- Generator: Adobe Illustrator 20.0.0, SVG Export Plug-In . SVG Version: 6.00 Build 0)  -->
<svg version="1.1" id="Layer_1" xmlns="http://www.w3.org/2000/svg" xmlns:xlink="http://www.w3.org/1999/xlink" x="0px" y="0px"
	 viewBox="0 0 94.4 130.9" style="enable-background:new 0 0 94.4 130.9;" xml:space="preserve">
<style type="text/css">
	.st0{fill:#FFFFFF;}
	path {fill: #ffffff;}
</style>
<title>brasov-logo</title>
<path d="M14.3,113.3C5.8,114-1.2,107,0.2,99.4c0.2-1.3,0.5-2.5,1.8-2.6c2-0.2,1.4,1.7,1.2,2.5c-1.5,6.7,2.1,9.3,7.8,10.8
	C12.3,110.3,14.1,110.7,14.3,113.3z"/>
<path d="M92.2,3.9l-18.4-2C80.3-2.5,86,1.2,91.5,1c2.2-0.1,0.1,2,0.5,3L92.2,3.9z"/>
<path d="M50-0.1l19.9,0.4c1.1,0,2,0.4,2.1,1.6c0,0.4-1,1.3-1.2,1.2c-6.2-2-12.3,0-18.4-1.2C52,1.8,51.6,1.3,50-0.1z"/>
<path d="M81.5,109.9c-0.5,0.6-0.9,1.3-1.4,1.5c-0.9,0.4-1.9,0.5-2.7,0.9c-1.8,0.9-2.9,3.4-5.4,2.4c-0.3-0.1-0.3-0.9-0.4-1.3
	c3.4-0.6,5.1-4.6,8.7-4.5C80.7,109,81,109.5,81.5,109.9z"/>
<path d="M5.7,101.9c2.4,1,4.4,2,5.4,4c0.3,0.5-0.7,1.7-2,1.1c-1.8-0.8-4.7-0.1-4.8-3.3C4.3,102.5,5.3,102.1,5.7,101.9z"/>
<path d="M45.6,128.9c-0.7,1.1-2.1,1.5-3.2,0.8c0,0,0,0-0.1,0c-1.5-1.4-4.5-1.4-4.5-4c0-1.2,1.6-1,2.4-0.5
	C42.1,126.4,44.7,126.6,45.6,128.9z"/>
<path d="M59.4,122.8c0.5,4.4-3.5,3.9-5.7,4.9c-1.2,0.5-1.2-1-0.5-1.9c1.6-2.1,3.5-3.5,6.4-2.8L59.4,122.8z"/>
<path d="M64.4,118.5l5.5-2.8C68.7,118,67.6,120.4,64.4,118.5z"/>
<path d="M21.4,117.3c2.2-0.9,3.9-1,5,1.1c0,0.5-0.2,0.9-0.6,1.2C23.8,120,22.5,119.1,21.4,117.3z"/>
<path d="M33.2,122.3c-0.4,0.7-0.8,1.5-1.7,1.4c-1-0.1-1.8-0.8-1.9-1.8c-0.1-0.9,0.7-0.9,1.3-1C32,120.7,32.7,121.4,33.2,122.3z"/>
<path d="M51.3,130.5c-1.6,0.6-3.3,0.6-4.9-0.1C48.9,128.9,48.9,128.9,51.3,130.5z"/>
<path d="M44.2,56.3c1.8-1.1,3-1.2,4.1-0.4c0.1,0.4,0,0.8-0.3,1.1C46.8,57.5,45.7,57.5,44.2,56.3z"/>
<path d="M44.9,48.7c0.8-0.7,2.1-0.6,2.8,0.2c0.1,0.1,0.1,0.2,0.2,0.2c0.3,0.4,0.5,0.9-0.2,1C46.5,50.6,45.3,49.8,44.9,48.7z"/>
<path d="M59.5,123c-0.2-1.5,0.3-2.3,1.9-1.9c0.4,0.1,0.9,0.7,0.8,0.9c-0.5,1.6-1.9,0.7-2.9,0.9L59.5,123z"/>
<path class="st0" d="M45,71.7c3.6,2.1,7.3,2.8,10.8,3.9c1.7,0.5,3.4,1.5,2.8,3.9c-0.8,3.1-2.3,6.1-2.3,9.5c0,1.4-1.8,2.1-3.1,1.3
	c-1.6-1-3.5-2.7-1.6-4.6c1.9-1.9,0.4-2.2-0.7-2.4C43.7,82,45.8,76.2,45,71.7z"/>
<path d="M89.6,84.8c-0.4,0-0.9-0.3-1.1-0.7c-1-4.6-3.9-8.1-6.7-11.7c-0.1-0.2-0.2-0.3-0.3-0.5c-0.3-0.7,0-1.7,0.8-2
	c0.7-0.3,1.5-1.5,2.5-0.3c1.5,1.9,3.5,1.1,5.5,0.7c-0.4,2.8,0.9,5.3,0.4,8.1c-0.2,1.1-1.5,4.1,1.4,4.2c2.7,0.1,2.2-2.4,2.2-4.1
	c0-8.3,0-16.7,0-25.1c0-15,0-30,0-45c0-1.8,0.5-3.7-1.9-4.4c-2.3,4.7,0.5,9.7-0.5,14.5c-0.9,4-0.2,8.4-0.2,12.6l-2.3,0
	c3-4.9-1.2-9.4,0.5-14.5c1-3.1-1.2-6.6,0.3-10c0.1-0.3-1-1.6-1.6-1.6c-5.4-0.4-11-0.7-16.4-0.7c-0.9,0-3.2-0.9-3.4,1.7
	C74.8,7.6,81.3,5,88,7.7c-2.7,1.4-4.8,0.4-6.6,1c-1.6,0.6-3,1.6-2.9,3.6c0.1,1.9,1.6,1.4,2.6,1.1c0.8-0.3,1.1-0.3,1.2,0.7
	S82,15.7,81,15.5c-2.9-0.4-2.6,1.6-2.6,3.5c0,4,0.7,7.5,4.5,9.8c1.2,0.5,1.8,1.7,1.5,2.9c-0.4,1.4-1.6,1-2.5,1c-1.2,0-2.9,0-2.8,1.3
	c0.3,2.2,0.2,4.4-0.4,6.6c-1,3.4,3.8,1.5,4.2,3.6c-7.8,6-1.8,15.5-5.6,23.5c-1.2-5.3-0.5-9.6-0.7-13.8c-0.1-1.8,0.2-3.6-2.5-4.1
	c-2.7-0.5-1.4-1.6-0.4-2.6c5.6-5.3,4.3-12.7-3-15.9c-0.8-0.3-1.3-1.3-1-2.1c7.3-1.1,7.7-1.8,6.7-9.7c-1.2-9.2-1.2-9.2-10.6-10.2
	c-0.5-1.6,2.1-3.9-0.2-4.7c-2.6-1.1-5.5-0.9-8.1,0.1c-2,0.8-0.9,2.7-0.3,4.2c0.6,1.5-0.7,1.5-1.7,1.6c-0.7,0-1.9-0.1-1.8,1
	c0.1,1.1,0.9,1.7,2,2c0.5,0.1,1.5-1.6,1.6,0.3c-0.1,0.7-0.5,1.2-1.1,1.5c-1.2,0.5-2.6,0.4-3.8-0.4c-4-1.9-8.8-0.6-11.1,3.1
	c-4.1,6.3-8.7,12.9-14.8,16.8c-7,4.5-9,10.5-10,17.6c-1.1,7.7-0.5,15.1,7.1,19.9c1.1,0.7,2.2,2.1,3.4,0.9c1.2-1.2-0.5-2.4-1-3.4
	c-0.9-1.7-2.9-2.7-3.7-4.7c-1.1-2.7-3-4.9,2-5.8c3.9-0.8,3.4-5.9,5.8-8.6c1.7-1.9-3-1.6-3.6-3.7c3.5-2.4,8.6-1.2,11.4-5.2
	c0.4-0.3,0.9-0.3,1.3-0.1c3.1,2.4,6,0.8,9.1,0c2-0.5,4.9-1.1,5.9,1.3c1.6,3.6,4.8,7.1,4.1,11.3c-0.4,2.5-1.3,4.5,0.3,6.9
	c1.6,2.4-1.4,2.5-1.8,3.9c-0.3,0.9-0.7,2.1-2,1.2c-2.8-2.1-6.2-3.2-9.7-2.8c-1.8,0.1-1.6-1.4-1.5-2.5c0.5-3.5-2.6-3.5-4.5-4.2
	c-1.1-0.4-4-2.1-3,2c0.2,0.8-1.2,0.1-1.9-0.1c-1.5-0.5-2.5-2-3.5-2.8c-1-0.8-1.8-0.7-2,0.8c-0.6,4.1,3.2,9.6,7.5,10.9
	c1.5,0.4,3.1,0.8,3.7,2.8c0.3,0.9,2.2,1.5,0.6,2.7c-1.1,0.8-2.3,2-3.8,0.4c-1-1-2.5-1.6-3.5-2.7c-1-1.2-2.7-1.6-4.1-1
	c-1.2,0.7-0.4,2.4-0.6,3.7c-0.6,2.9,1.7,5,2.1,7.6c0.8,5.2,1.7,10.4,5.9,14.3c1.8,1.6,0.6,2.7-0.9,3.3c-2.5,1-4.7,2-1.1,4.6
	c1.7,1.2,0.9,2-0.6,2.8c-2.4,1.3-3,0-3.3-1.9c-0.4-2.5-2.2-2.8-4.1-2.3c-2.1,0.5-1.9,2.4-1.8,4.1c0.5,6.1,2.8,7.2,8,3.9
	c0.5-0.4,1-0.7,1.6-1c2.9-1.4,5.6-2.4,6.5,2.4c0.6,3.5,4,5.2,6.4,7.4c0.8,0.7,3.3,1.3,3.4-1.1c0.2-3.6,3.8-4.5,5-7.1
	c1.9-4.4,5-1,7.5-1.5c1.4-0.3,3.4,0.3,4.3-0.5c1.6-1.5,5.9-0.6,4.9-3.4c-0.8-2.4-4-4.2-7.1-4.2c-0.5,0-0.9,0.4-1.4,0.4
	c-2.9,0.3-4.3-0.6-3.4-3.7c1-3.9,1.9-7.8,2.8-11.6c1.9,0.1,2.6,1.3,3.4,2.3c4.1,5,8.5,9.5,15.2,10.6c2.1,0.4,1.9,1.6,1.8,2.9
	c-0.1,1.9-0.6,3.8-0.9,5.8c1-0.3,1.7-0.5,2.5-0.6c6-1.1,7.8-4,5.9-9.8c-0.2-0.8-1-1.8,0.2-2c4-0.6,2-4.3,2.9-6.4
	C95.6,84.8,92.3,84.7,89.6,84.8z M89.6,33c2.2,1.7,1.9,3.1,0.7,5.5C88.9,36.3,89.2,34.9,89.6,33z M90,41.8l1.2,0.3l-0.6,4.6
	c-0.6-0.3-1.3-0.4-1.6-0.9C87.7,43.9,89.6,43.1,90,41.8z M83,60.9c0.6,0.7,1.1,1.1,1.3,1.7c0.2,0.4,0,0.9-0.5,1.1
	c-0.2,0.1-0.4,0.1-0.5,0c-0.8-0.1-0.8-0.8-0.8-1.5C82.6,61.8,82.8,61.3,83,60.9z M40,35.8c-0.1,1.9-2.4-0.2-3.7,0
	c-1,0.3-2.1-0.3-2.4-1.5c0-0.1-0.1-0.3-0.1-0.4c0-1.2,0.5-2.8,1.9-3c2.8-0.5,4.7-1.8,6.3-5.9C43.3,30,40.2,32.5,40,35.8z M56.3,23
	c-2.3,3.5-3.4,7.8-6.7,10.6c-0.1,0.4-0.3,0.8-0.5,1.1c-0.3-0.4-0.5-0.8-0.7-1.1c-0.6-0.8-1.1-1.5-0.2-2.5c3.5-3.9,3.9-8,0.2-12.1
	c-0.8-0.9,0-1.4,0.2-1.4c2.4-0.1,4.7,0.5,6.8,1.6C57.2,20.1,56.8,22.2,56.3,23z M33.8,78.9c2.4,0.4,3.9,1.6,4.3,4.9
	C36.1,82.1,32.2,83.3,33.8,78.9z M42.3,88.1c-0.9,1.8-2.6,1.5-4.7,0.7c2-0.4,1-3.7,3.2-3.4C41.7,85.5,43,86.8,42.3,88.1z M47.8,99.6
	c-1.3-0.1-2.3-1.2-2.2-2.4c0-0.1,0-0.2,0-0.3c0.1-1,0.6-2.2,1.7-1.7c1.3,0.7,2.2,1.9,3.2,2.8C49.7,99.2,49,99.8,47.8,99.6z
	 M67.3,14.8c-1.2,1.7-2.7,2.1-5.5,2.9C63.9,15.5,64.6,13.8,67.3,14.8z M60.2,30.7c2.2-3.9,4.8-5.4,8-7.1c1.1-0.5,2.4-0.1,2.9,1.1
	c0,0,0,0.1,0.1,0.1c0.3,0.6,0.4,1.2,0.2,1.8c-0.6,1.2-1.4-0.4-2,0c-1.8-0.6-3.8,0.3-4.4,2.1v0.1c-0.5,1.8-0.7,4.4,1.8,5.4
	c5.3,2.1,1.5,7.4,3.9,10.6c0.8,1-4.3,2.8-6.1,1.3C59.3,42,55.8,38.5,60.2,30.7z M67.1,59.7c-0.2,1.3-3.1,4-4.3,3.3
	c-1.8-1.4,0.2-4-0.3-6.7C64.6,57.4,67.5,57.5,67.1,59.7z M72,58.3c-2-1.1-1.4-3.4-2.2-5.1c1.1,1.4,4.5,1.1,3.5,4
	C73.1,57.6,72.2,58.4,72,58.3z M77.6,78.6c-1.7-0.8-3.3-1.9-4.7-3.2c-0.4-0.3,0.5-1.4,1-1.2c1.6,0.7,3.7,0.8,4.5,2.6
	C78.3,77.8,78.2,78.9,77.6,78.6z M85.6,85.6c-1.5,0.2-2.1-1.1-3.1-2.4c1.2-0.7,2.7-0.4,3.4,0.8c0.1,0.1,0.1,0.3,0.2,0.4
	C86.2,84.7,85.8,85.6,85.6,85.6z"/>
<path d="M36.8,6.1C33.2,5.4,29.6,4.9,26,4.7c-3.2-0.3-2.4,3.9-4.9,4.9C17.4,1.2,9.8,7.5,4.6,4.7C18.6,1.3,33.1,3.9,47,1.2
	c-4.1-1.4-8.3-0.8-12.4-1C25.4-0.3,16.3,1,7.2,0.1c-2.6-0.3-5.4,0.2-6,3.7c-1,6.2-1.1,12.4-0.4,18.5c0.9,9-0.1,17.9-0.2,26.6
	C0.4,62.7,0.9,76.5,0.2,90.3C0.1,91.6,0,93,1.4,93.8c4.4,2.8,8.8,4.9,14.1,5.9c5.3,0.9,5.2-1,4.3-4.6l-0.1,0.2c0-0.1,0-0.1-0.1-0.1
	c-5.5,2.3-10.4-1.4-15.6-2c-1-0.1-1.2-1.7-1.1-3.3c0.4-3.8,0.4-7.5,0.6-11.4C8.7,84.4,17,87,19.7,95.1c0.1,0,0.1,0,0.2-0.1
	c1.8,0.5,3.1-0.9,2.3-1.8c-1.4-2.8-1.2-6.7-4.2-8.5c-3-1.8-5.4-4.3-7.9-6.6c-2.1-1.8-0.8-4.8-2.4-5.4C0.9,70.2,4.2,64.9,4.3,61
	c0.1-2.6,1.9-5.1,0.4-8.1c-1.8-3.6,0.7-7.1,0.8-10.6c0.1-2.7,0.8-4.7,4-2.4c0.2,0.2,0.4,0.3,0.6,0.4c1.2,0.5,2.6,0,3.1-1.2
	c0.9-1.7-0.9-2.7-2-2.8c-3.6-0.5-4.4-3.5-6.2-6.2c5-1.4,6.4,4.1,10.3,4.6c-0.3-4-0.1-7.2,5-5.9c2.1,0.5,2.4-1.5,3-2.6
	c1.5-2.6,2.1-6,6.4-5.1c0.7,0.1,1.2-0.7,1.7-1.5c1.9-3.6,3.3-7.5,6.2-10.5C39.2,7.7,38.1,6.3,36.8,6.1z M7.8,25.3
	c-0.4-0.3-0.5-1-0.2-1.4c0.1-0.1,0.2-0.2,0.3-0.3c2-1.6,3.8-0.5,5.9,0.6C11.5,23.6,10.3,27.4,7.8,25.3z M11.5,19.8
	c-3-0.3-2.5-3.5-4.1-5c2.1-1.7,2.5-5.3,6-5.4c2.5-0.1,3.9,2,4.8,3.8C19,15.1,14.1,19.5,11.5,19.8z"/>
</svg>
